{
  "CEREALS_AND_GRAINS": {
    "id": "CEREALS_AND_GRAINS",
    "value": "Cereals & Grains"
  },
  "PULSES": { "id": "PULSES", "value": "Pulses" },
  "OILS_AND_FATS": { "id": "OILS_AND_FATS", "value": "Oils and Fats" },
  "FIBRE_CROPS": { "id": "FIBRE_CROPS", "value": "Fibre Crops" },
  "FRUITS_AND_VEGETABLES": {
    "id": "FRUITS_AND_VEGETABLES",
    "value": "Fruits & Vegetables"
  },
  "SPICES": { "id": "SPICES", "value": "Spices" },
  "LIVE_STOCK": { "id": "LIVE_STOCK", "value": "Live stock" },
  "POULTRY": { "id": "POULTRY", "value": "Poultry" },
  "FISHERIES": { "id": "FISHERIES", "value": "Fisheries" },
  "EDIBLE_NUTS_AND_SEEDS": {
    "id": "EDIBLE_NUTS_AND_SEEDS",
    "value": "Edible Nuts & Seeds"
  },
  "PLANTATION_CROPS": {
    "id": "PLANTATION_CROPS",
    "value": "Plantation Crops"
  },
  "FLOWERS": {
    "id": "FLOWERS",
    "value": "Flowers",
    "subCategories": [
      { "id": "DRIED", "value": "Dried" },
      { "id": "FRESH", "value": "Fresh" }
    ]
  },
  "DYES_GUMS_AND_RESINS": {
    "id": "DYES_GUMS_AND_RESINS",
    "value": "Dyes, Gums & resins"
  },
  "FOREST_PRODUCTS": { "id": "FOREST_PRODUCTS", "value": "Forest Products" },
  "FODDER_AND_GRASSES": {
    "id": "FODDER_AND_GRASSES",
    "value": "Fodder & Grasses"
  },
  "DAIRY": { "id": "DAIRY", "value": "Dairy" }
}
