{
  "subCategories": [
    {
      "id": "FOOD_PRODUCTS",
      "value": "FOOD PRODUCTS",
      "subCategories": [
        {
          "id": "CONFECTIONERIES_AND_SWEETS",
          "value": "Confectioneries & Sweets",
          "subCategories": [
            {
              "id": "INDIAN_SWEETS",
              "value": "Indian Sweets",
              "subCategories": [
                { "id": "SPECIALITY_SWEETS", "value": "Speciality Sweets" }
              ]
            },
            {
              "id": "SPECIALITY_INDIAN_SWEETS",
              "value": "Speciality Indian Sweets",
              "subCategories": [
                { "id": "BOONDI_CHIKKI", "value": "Boondi Chikki" },
                { "id": "CASHEW_CHIKKI", "value": "Cashew Chikki" },
                { "id": "COCONUT_LADDU", "value": "Coconut Laddu" },
                { "id": "GORMITI", "value": "Gormiti" },
                { "id": "NUVVULA_/TIL_LADDU", "value": "Nuvvula /Til Laddu" },
                { "id": "PEANUT_CHIKKI", "value": "Peanut Chikki" },
                {
                  "id": "SUGAR_COATED_GAVVALU",
                  "value": "Sugar Coated Gavvalu"
                }
              ]
            }
          ]
        },
        {
          "id": "GROCERY_AND_GOURMET",
          "value": "Grocery & Gourmet",
          "subCategories": [
            {
              "id": "DRY_FRUITS_AND_NUTS",
              "value": "Dry Fruits & Nuts",
              "subCategories": [{ "id": "RAISINS", "value": "Raisins" }]
            },
            {
              "id": "EDIBLE_OILS",
              "value": "Edible Oils",
              "subCategories": [
                {
                  "id": "GHEE_CLARIFIED_BUTTER",
                  "value": "Ghee (Clarified Butter)"
                },
                { "id": "SAFFLOWER_OIL", "value": "Safflower Oil" }
              ]
            },
            {
              "id": "FLOURS_AND_RAWA",
              "value": "Flours & Rawa",
              "subCategories": [
                { "id": "FINGER_MILLET_FLOUR", "value": "Finger Millet Flour" },
                {
                  "id": "FOXTAIL_MILLET_FLOUR",
                  "value": "Foxtail Millet Flour"
                },
                {
                  "id": "FOXTAIL_MILLET_IDLY_RAWA",
                  "value": "Foxtail Millet Idly Rawa"
                },
                { "id": "FOXTAIL_MILLET_RAWA", "value": "Foxtail Millet Rawa" },
                { "id": "LITTLE_MILLET_FLOUR", "value": "Little Millet Flour" },
                {
                  "id": "MIXED_PROTEIN_IDLY_RAWA",
                  "value": "Mixed Protein Idly Rawa"
                },
                { "id": "MULTIGRAIN_POWDER", "value": "Multigrain Powder" },
                { "id": "PEARL_MILLET_FLOUR", "value": "Pearl Millet Flour" },
                { "id": "PEARL_MILLET_RAWA", "value": "Pearl Millet Rawa" },
                { "id": "SORGHUM_FLOUR", "value": "Sorghum Flour" },
                { "id": "SORGHUM_IDLY_RAWA", "value": "Sorghum Idly Rawa" },
                { "id": "SORGHUM_RAWA", "value": "Sorghum Rawa" },
                { "id": "UPMA_RAWA", "value": "Upma Rawa" }
              ]
            },
            {
              "id": "FRYUMS_AND_PAPADS",
              "value": "Fryums & Papads",
              "subCategories": [
                { "id": "FRYUMS", "value": "Fryums" },
                { "id": "PAPAD", "value": "Papad" },
                { "id": "PAPADS", "value": "Papads" }
              ]
            },
            {
              "id": "GRAINS_AND_MILLETS",
              "value": "Grains & Millets",
              "subCategories": [
                { "id": "ASSORTED_MILLETS", "value": "Assorted Millets" },
                { "id": "BARNYARD_MILLETS", "value": "Barnyard Millets" },
                { "id": "FINGER_MILLETS", "value": "Finger Millets" },
                { "id": "FOXTAIL_MILLET_RICE", "value": "Foxtail Millet Rice" },
                { "id": "FOXTAIL_MILLETS", "value": "Foxtail Millets" },
                { "id": "KODO_MILLETS", "value": "Kodo Millets" },
                { "id": "LITTLE_MILLETS", "value": "Little Millets" },
                { "id": "PROSO_MILLETS", "value": "Proso Millets" },
                { "id": "SORGHUM_MILLETS", "value": "Sorghum Millets" }
              ]
            },
            {
              "id": "PACKAGED_FOOD",
              "value": "Packaged Food",
              "subCategories": [
                { "id": "READY_TO_COOK", "value": "Ready to Cook" }
              ]
            },
            {
              "id": "POWDERED_DRINK_MIXES",
              "value": "Powdered Drink Mixes",
              "subCategories": [
                { "id": "MULTIGRAIN_POWDERS", "value": "Multigrain Powders" },
                { "id": "RAGI_MALT", "value": "Ragi Malt" }
              ]
            },
            {
              "id": "POWDERED_SPICES_AND_MASALAS",
              "value": "Powdered Spices & Masalas",
              "subCategories": [
                { "id": "SPICE_POWDERS", "value": "Spice Powders" }
              ]
            },
            {
              "id": "PULSES",
              "value": "Pulses",
              "subCategories": [
                { "id": "BLACK_GRAM", "value": "Black Gram" },
                { "id": "HORSE_GRAM", "value": "Horse Gram" }
              ]
            },
            {
              "id": "SPECIALITY_FOOD",
              "value": "Speciality Food",
              "subCategories": [
                { "id": "DRIED_JUJUBE_FRUIT", "value": "Dried Jujube Fruit" },
                { "id": "FRUIT_JELLY", "value": "Fruit Jelly" }
              ]
            },
            {
              "id": "SYRUPS_SUGARS_AND_SWEETENERS",
              "value": "Syrups, Sugars & Sweeteners",
              "subCategories": [
                { "id": "HONEY", "value": "Honey" },
                { "id": "JAGGERY", "value": "Jaggery" },
                { "id": "PALM_JAGGERY", "value": "Palm Jaggery" }
              ]
            }
          ]
        },
        {
          "id": "INDIAN_SNACKS_AND_SAVOURIES",
          "value": "Indian Snacks & Savouries",
          "subCategories": [
            {
              "id": "BISCUITS",
              "value": "Biscuits",
              "subCategories": [
                { "id": "ASSORTED_BISCUITS", "value": "Assorted Biscuits" },
                { "id": "COCONUT_BISCUITS", "value": "Coconut Biscuits" },
                {
                  "id": "FINGER_MILLET_BISCUITS",
                  "value": "Finger Millet Biscuits"
                },
                {
                  "id": "FOXTAIL_MILLET_BISCUITS",
                  "value": "Foxtail Millet Biscuits"
                },
                {
                  "id": "JONNA_SORGHUM_BISCUITS",
                  "value": "Jonna (Sorghum) Biscuits"
                },
                {
                  "id": "KORRA_FOXTAIL_MILLET_BISCUITS",
                  "value": "Korra (Foxtail Millet) Biscuits"
                },
                {
                  "id": "MULTI_MILLET_BISCUITS",
                  "value": "Multi Millet Biscuits"
                },
                { "id": "MULTIGRAIN_BISCUITS", "value": "Multigrain Biscuits" },
                {
                  "id": "PEARL_MILLET_BISCUITS",
                  "value": "Pearl Millet Biscuits"
                },
                {
                  "id": "RAGI_FINGER_MILLET__BISCUITS",
                  "value": "Ragi (Finger Millet ) Biscuits"
                },
                {
                  "id": "RAGI_FINGER_MILLET_BISCUITS",
                  "value": "Ragi (Finger Millet) Biscuits"
                },
                {
                  "id": "RAGIFINGER_MILLET__BISCUITS",
                  "value": "Ragi(Finger Millet ) Biscuits"
                },
                { "id": "RUSK", "value": "Rusk" },
                {
                  "id": "SAJJA_PEARL_MILLET_BISCUITS",
                  "value": "Sajja (Pearl Millet) Biscuits"
                },
                { "id": "SORGHUM_BISCUITS", "value": "Sorghum Biscuits" }
              ]
            },
            {
              "id": "CAKES",
              "value": "Cakes",
              "subCategories": [
                { "id": "JONNA_SORGHUM_CAKE", "value": "Jonna (Sorghum) Cake" },
                {
                  "id": "KORRA_FOXTAIL_MILLET_CAKE",
                  "value": "Korra (Foxtail Millet) Cake"
                },
                {
                  "id": "RAGI_FINGER_MILLET__CAKE",
                  "value": "Ragi (Finger Millet ) Cake"
                }
              ]
            },
            {
              "id": "MIXTURE",
              "value": "Mixture",
              "subCategories": [
                {
                  "id": "FOXTAIL_MILLET_MIXTURE",
                  "value": "Foxtail Millet Mixture"
                }
              ]
            },
            {
              "id": "SPECIALITY_SNACKS",
              "value": "Speciality Snacks",
              "subCategories": [
                { "id": "ASSORTED_MURUKKU", "value": "Assorted Murukku" },
                { "id": "CHAKKALU/NIPPATU", "value": "Chakkalu/Nippatu" },
                { "id": "CHAKRALU_MIXTURE", "value": "Chakralu (Mixture)" },
                { "id": "CHEGODILU", "value": "Chegodilu" },
                { "id": "CHEKKALU", "value": "Chekkalu" },
                {
                  "id": "FINGER_MILLET_BOONDI",
                  "value": "Finger Millet Boondi"
                },
                {
                  "id": "FINGER_MILLET_MIXTURE",
                  "value": "Finger Millet Mixture"
                },
                {
                  "id": "FOXTAIL_MILLET_BOONDI",
                  "value": "Foxtail Millet Boondi"
                },
                {
                  "id": "FOXTAIL_MILLET_MURUKKU",
                  "value": "Foxtail Millet Murukku"
                },
                { "id": "KARAPUSA/SEV", "value": "Karapusa/Sev" },
                { "id": "MIXTURE", "value": "Mixture" },
                { "id": "MURUKKU", "value": "Murukku" },
                {
                  "id": "PEARL_MILLET_MURUKKU",
                  "value": "Pearl Millet Murukku"
                },
                {
                  "id": "RAGI_FINGER_MILLET_MURUKKU",
                  "value": "Ragi (Finger Millet) Murukku"
                },
                { "id": "RIBBON_PAKODI", "value": "Ribbon Pakodi" },
                { "id": "SORGHUM_FLAKES", "value": "Sorghum Flakes" },
                { "id": "SORGHUM_MURUKKU", "value": "Sorghum Murukku" },
                { "id": "SPICED_NUTS", "value": "Spiced Nuts" },
                { "id": "WHEAT_PUFFS", "value": "Wheat Puffs" }
              ]
            }
          ]
        },
        {
          "id": "PICKLES_AND_CHUTNEYS",
          "value": "Pickles & Chutneys",
          "subCategories": [
            {
              "id": "NON_VEG_PICKLES",
              "value": "Non Veg Pickles",
              "subCategories": [
                {
                  "id": "ASSORTED_NON_VEG_PICKLES",
                  "value": "Assorted Non Veg Pickles"
                },
                { "id": "CHICKEN_PICKLE", "value": "Chicken Pickle" },
                { "id": "FISH_PICKLE", "value": "Fish Pickle" },
                { "id": "MUTTON_PICKLE", "value": "Mutton Pickle" },
                { "id": "PRAWN_PICKLE", "value": "Prawn Pickle" }
              ]
            },
            {
              "id": "VEGETARIAN_PICKLES",
              "value": "Vegetarian Pickles",
              "subCategories": [
                { "id": "AMLA_PICKLE", "value": "Amla Pickle" },
                { "id": "BITTER_GOURD_PICKLE", "value": "Bitter Gourd Pickle" },
                { "id": "DRUMSTICK_PICKLE", "value": "Drumstick Pickle" },
                { "id": "GARLIC_PICKLE", "value": "Garlic Pickle" },
                { "id": "GINGER_PICKLE", "value": "Ginger Pickle" },
                { "id": "GONGURA_PICKLE", "value": "Gongura Pickle" },
                {
                  "id": "GREEN_TAMARIND_PICKLE",
                  "value": "Green Tamarind Pickle"
                },
                { "id": "IVY_GOURD_PICKLE", "value": "Ivy Gourd pickle" },
                { "id": "LEMON_PICKLE", "value": "Lemon Pickle" },
                {
                  "id": "MAGAYA_MANGO_PICKLE",
                  "value": "Magaya (Mango) Pickle"
                },
                { "id": "MANGO_PICKLE", "value": "Mango Pickle" },
                {
                  "id": "MIXED_VEGETABLE_PICKLE",
                  "value": "Mixed Vegetable Pickle"
                },
                { "id": "MUSHROOM_PICKLE", "value": "Mushroom Pickle" },
                {
                  "id": "RED_CHILI_GONGURA_PICKLE",
                  "value": "Red Chili Gongura Pickle"
                },
                { "id": "RED_CHILI_PICKLE", "value": "Red Chili Pickle" },
                { "id": "TOMATO_PICKLE", "value": "Tomato Pickle" },
                { "id": "YAM_PICKLE", "value": "Yam Pickle" }
              ]
            }
          ]
        },
        {
          "id": "PICKLES_AND_PRESERVES",
          "value": "Pickles & Preserves",
          "subCategories": [
            {
              "id": "NON_VEG_PICKLES",
              "value": "Non Veg Pickles",
              "subCategories": [
                { "id": "CHICKEN_PICKLE", "value": "Chicken Pickle" }
              ]
            },
            {
              "id": "VEGETARIAN_PICKLES",
              "value": "Vegetarian Pickles",
              "subCategories": [
                { "id": "AMLA_PICKLE", "value": "Amla Pickle" },
                { "id": "BRINJAL_PICKLE", "value": "Brinjal Pickle" },
                { "id": "GINGER_PICKLE", "value": "Ginger Pickle" },
                { "id": "GONGURA_PICKLE", "value": "Gongura Pickle" },
                { "id": "LEMON_PICKLE", "value": "Lemon Pickle" },
                { "id": "MANGO_PICKLE", "value": "Mango Pickle" },
                { "id": "RED_CHILI_PICKLE", "value": "Red Chili Pickle" },
                { "id": "TAMARIND_PICKLE", "value": "Tamarind Pickle" },
                { "id": "TAPIOCA_PICKLE", "value": "Tapioca Pickle" }
              ]
            }
          ]
        }
      ]
    },
    {
      "id": "HANDICRAFTS",
      "value": "HANDICRAFTS",
      "subCategories": [
        {
          "id": "BAMBOO",
          "value": "Bamboo",
          "subCategories": [
            {
              "id": "HOME_AND_DECOR",
              "value": "Home & Decor",
              "subCategories": [
                { "id": "FLOWER_VASES", "value": "Flower Vases" },
                {
                  "id": "STORAGE_AND_ORGANISATION",
                  "value": "Storage & Organisation"
                }
              ]
            }
          ]
        },
        {
          "id": "BRASS",
          "value": "Brass",
          "subCategories": [
            {
              "id": "DHOKRA_ART",
              "value": "Dhokra Art",
              "subCategories": [
                { "id": "HOME_DECOR_ACCENTS", "value": "Home Decor Accents" }
              ]
            },
            {
              "id": "HOME_AND_DECOR",
              "value": "Home & Decor",
              "subCategories": [
                {
                  "id": "STORAGE_AND_ORGANISATION",
                  "value": "Storage & Organisation"
                }
              ]
            }
          ]
        },
        {
          "id": "COPPER",
          "value": "Copper",
          "subCategories": [
            {
              "id": "HOME_AND_DECOR",
              "value": "Home & Decor",
              "subCategories": [
                { "id": "RELIGIOUS_IDOLS", "value": "Religious Idols" }
              ]
            }
          ]
        },
        {
          "id": "FABRIC",
          "value": "Fabric",
          "subCategories": [
            {
              "id": "BAGSWALLETSLUGGAGE",
              "value": "Bags-Wallets-Luggage",
              "subCategories": [
                { "id": "DIAPER_BAGS", "value": "Diaper Bags" },
                { "id": "GIFT_BAGS", "value": "Gift Bags" },
                { "id": "HAND_BAGS", "value": "Hand Bags" },
                { "id": "HANDBAGS", "value": "Handbags" },
                { "id": "LUNCH_BAGS", "value": "Lunch Bags" },
                { "id": "MULTIPURPOSE_BAGS", "value": "Multipurpose Bags" },
                { "id": "POUCHES", "value": "Pouches" },
                { "id": "PURSES_AND_CLUTCHES", "value": "Purses & Clutches" },
                { "id": "SAREE_BAGS", "value": "Saree Bags" },
                { "id": "SCHOOL_BAGS", "value": "School Bags" },
                { "id": "SLING_BAGS", "value": "Sling Bags" },
                {
                  "id": "STORAGE_AND_ORGANISATION",
                  "value": "Storage & Organisation"
                },
                { "id": "TRAVEL_BAGS", "value": "Travel Bags" }
              ]
            },
            {
              "id": "TOYS_AND_GAMES",
              "value": "Toys & Games",
              "subCategories": [{ "id": "TOYS", "value": "Toys" }]
            }
          ]
        },
        {
          "id": "GRASS",
          "value": "Grass",
          "subCategories": [
            {
              "id": "HOME_AND_DECOR",
              "value": "Home & Decor",
              "subCategories": [
                { "id": "HOME_DECOR_ACCENTS", "value": "Home Decor Accents" }
              ]
            },
            {
              "id": "KITCHEN_AND_DINING",
              "value": "Kitchen & Dining",
              "subCategories": [{ "id": "LUNCH_BOX", "value": "Lunch Box" }]
            }
          ]
        },
        {
          "id": "HOME_AND_DECOR",
          "value": "Home & Decor",
          "subCategories": [
            {
              "id": "HOME_DECOR_ACCENTS",
              "value": "Home Decor Accents",
              "subCategories": [
                { "id": "FLOWER_VASES", "value": "Flower Vases" },
                { "id": "RELIGIOUS_IDOLS", "value": "Religious Idols" },
                { "id": "THORAN_DOOR_DECOR", "value": "Thoran (Door Decor)" }
              ]
            },
            {
              "id": "PAINTINGS",
              "value": "Paintings",
              "subCategories": [
                { "id": "BATIK_PAINTINGS", "value": "Batik Paintings" },
                { "id": "KALAMKARI_PAINTINGS", "value": "Kalamkari Paintings" }
              ]
            },
            {
              "id": "WALL_DECOR",
              "value": "Wall Decor",
              "subCategories": [
                { "id": "DECORATIVE_PLATES", "value": "Decorative Plates" }
              ]
            }
          ]
        },
        {
          "id": "HOME_AND_KITCHEN",
          "value": "Home & Kitchen",
          "subCategories": [
            {
              "id": "PUJA_ARTICLES",
              "value": "Puja Articles",
              "subCategories": [
                {
                  "id": "TURMERIC_AND_KUMKUM_PLATTER",
                  "value": "Turmeric & Kumkum Platter"
                }
              ]
            }
          ]
        },
        {
          "id": "JUTE",
          "value": "Jute",
          "subCategories": [
            {
              "id": "BAGSWALLETSLUGGAGE",
              "value": "Bags-Wallets-Luggage",
              "subCategories": [
                { "id": "BOTTLE_BAGS", "value": "Bottle Bags" },
                { "id": "CONFERENCE_BAGS", "value": "Conference bags" },
                { "id": "GIFT_BAGS", "value": "Gift Bags" },
                { "id": "HAND_BAGS", "value": "Hand Bags" },
                { "id": "HANDBAGS", "value": "Handbags" },
                { "id": "LAPTOP_BAGS", "value": "Laptop Bags" },
                { "id": "LUNCH_BAGS", "value": "Lunch Bags" },
                { "id": "MULTIPURPOSE_BAGS", "value": "Multipurpose Bags" },
                { "id": "POUCHES", "value": "Pouches" },
                { "id": "PURSES_AND_CLUTCHES", "value": "Purses & Clutches" },
                { "id": "SLING_BAGS", "value": "Sling Bags" },
                { "id": "STUDENT_BAGS", "value": "Student Bags" },
                { "id": "TRAVEL_BAGS", "value": "Travel Bags" },
                { "id": "WATER_BOTTLE_BAGS", "value": "Water Bottle Bags" }
              ]
            },
            {
              "id": "HOME_AND_DECOR",
              "value": "Home & Decor",
              "subCategories": [
                {
                  "id": "STORAGE_AND_ORGANISATION",
                  "value": "Storage & Organisation"
                }
              ]
            },
            {
              "id": "KITCHEN_AND_DINING",
              "value": "Kitchen & Dining",
              "subCategories": [{ "id": "COASTERS", "value": "Coasters" }]
            },
            {
              "id": "STATIONERY_AND_OFFICE_PRODUCTS",
              "value": "Stationery & Office Products",
              "subCategories": [
                { "id": "FILES_AND_FOLDERS", "value": "Files & Folders" }
              ]
            },
            {
              "id": "STORAGE_AND_ORGANISATION",
              "value": "Storage & Organisation",
              "subCategories": [
                { "id": "WALL_HANGERS", "value": "Wall Hangers" }
              ]
            }
          ]
        },
        {
          "id": "LEATHER",
          "value": "Leather",
          "subCategories": [
            {
              "id": "ANDHRA_PRADESH_LEATHER_PUPPETRY",
              "value": "Andhra Pradesh Leather Puppetry",
              "subCategories": [
                { "id": "LAMPS_AND_LANTERNS", "value": "Lamps & Lanterns" }
              ]
            }
          ]
        },
        {
          "id": "PALM_LEAF",
          "value": "Palm Leaf",
          "subCategories": [
            {
              "id": "CHILDRENS_ACCESSORIES",
              "value": "Children's Accessories",
              "subCategories": [
                { "id": "CAPS_AND_HATS", "value": "Caps & Hats" }
              ]
            },
            {
              "id": "HOME_AND_DECOR",
              "value": "Home & Decor",
              "subCategories": [
                { "id": "FLOWER_VASES", "value": "Flower Vases" },
                { "id": "GARLANDS", "value": "Garlands" }
              ]
            },
            {
              "id": "HOME_AND_KITCHEN",
              "value": "Home & Kitchen",
              "subCategories": [
                { "id": "FRUIT_BASKETS", "value": "Fruit Baskets" },
                { "id": "GIFT_BOXES", "value": "Gift Boxes" },
                { "id": "LAUNDRY_BASKETS", "value": "Laundry Baskets" },
                { "id": "LETTER_BOX", "value": "Letter Box" },
                {
                  "id": "MULTIPURPOSE_BASKETS",
                  "value": "Multipurpose Baskets"
                },
                { "id": "PUJA_BASKETS", "value": "Puja Baskets" },
                { "id": "STORAGE_BASKETS", "value": "Storage Baskets" },
                { "id": "TRAYS", "value": "Trays" }
              ]
            },
            {
              "id": "MENS_ACCESSORIES",
              "value": "Men's Accessories",
              "subCategories": [
                { "id": "CAPS_AND_HATS", "value": "Caps & Hats" }
              ]
            },
            {
              "id": "WOMENS_ACCESSORIES",
              "value": "Women's Accessories",
              "subCategories": [
                { "id": "CAPS_AND_HATS", "value": "Caps & Hats" }
              ]
            }
          ]
        },
        {
          "id": "PAPER",
          "value": "Paper",
          "subCategories": [
            {
              "id": "ARTS_AND_CRAFTS",
              "value": "Arts & Crafts",
              "subCategories": [{ "id": "QUILLING", "value": "Quilling" }]
            }
          ]
        },
        {
          "id": "SEASHELL",
          "value": "Seashell",
          "subCategories": [
            {
              "id": "HOME_AND_DECOR",
              "value": "Home & Decor",
              "subCategories": [
                { "id": "BED_LAMPS", "value": "Bed Lamps" },
                { "id": "CURTAINS", "value": "Curtains" },
                { "id": "HOME_DECOR_ACCENTS", "value": "Home Decor Accents" },
                { "id": "MIRRORS", "value": "Mirrors" }
              ]
            },
            {
              "id": "HOME_DECOR_ACCENTS",
              "value": "Home Decor Accents",
              "subCategories": [
                { "id": "CONCH_SHELLS", "value": "Conch Shells" }
              ]
            },
            {
              "id": "STORAGE_AND_ORGANISATION",
              "value": "Storage & Organisation",
              "subCategories": [{ "id": "KEYCHAINS", "value": "Keychains" }]
            }
          ]
        },
        {
          "id": "TERRACOTTA",
          "value": "Terracotta",
          "subCategories": [
            { "id": "COIN_BANK", "value": "Coin Bank" },
            {
              "id": "HOME_AND_DECOR",
              "value": "Home & Decor",
              "subCategories": [
                { "id": "FLOWER_POTS", "value": "Flower Pots" },
                { "id": "FLOWER_VASES", "value": "Flower Vases" },
                { "id": "HOME_DECOR_ACCENTS", "value": "Home Decor Accents" },
                { "id": "LAMPS_AND_LANTERNS", "value": "Lamps & Lanterns" },
                { "id": "RELIGIOUS_IDOLS", "value": "Religious Idols" },
                { "id": "THORAN_DOOR_DECOR", "value": "Thoran (Door Decor)" },
                { "id": "WIND_CHIMES", "value": "Wind Chimes" }
              ]
            },
            {
              "id": "HOME_AND_KITCHEN",
              "value": "Home & Kitchen",
              "subCategories": [
                { "id": "COOKWARE", "value": "Cookware" },
                { "id": "TEA_CUPS", "value": "Tea cups" },
                { "id": "WATER_BOTTLES", "value": "Water Bottles" }
              ]
            },
            {
              "id": "JUGS_AND_PITCHERS",
              "value": "Jugs & Pitchers",
              "subCategories": [
                { "id": "TERRACOTTA_JUGS", "value": "Terracotta Jugs" }
              ]
            },
            {
              "id": "OFFICE_PRODUCTS",
              "value": "Office Products",
              "subCategories": [{ "id": "PEN_STANDS", "value": "Pen Stands" }]
            }
          ]
        },
        {
          "id": "WOOD",
          "value": "Wood",
          "subCategories": [
            {
              "id": "CHILDRENS_TOYS",
              "value": "Children's Toys",
              "subCategories": [{ "id": "TOYS", "value": "Toys" }]
            },
            {
              "id": "ETIKOPPAKA",
              "value": "Etikoppaka",
              "subCategories": [
                { "id": "DOLLS", "value": "Dolls" },
                { "id": "FLOWER_VASES", "value": "Flower Vases" },
                { "id": "HOME_DECOR_ACCENTS", "value": "Home Decor Accents" },
                { "id": "JARS_AND_CONTAINERS", "value": "Jars & Containers" },
                {
                  "id": "MOBILE_PHONE_HOLDERS",
                  "value": "Mobile Phone Holders"
                },
                { "id": "PEN_STANDS", "value": "Pen Stands" },
                { "id": "RELIGIOUS_IDOLS", "value": "Religious Idols" },
                { "id": "TOYS", "value": "Toys" }
              ]
            },
            {
              "id": "HAIR_ACCESSORIES",
              "value": "Hair Accessories",
              "subCategories": [{ "id": "HAIR_CLIPS", "value": "Hair Clips" }]
            },
            {
              "id": "HOME_AND_DECOR",
              "value": "Home & Decor",
              "subCategories": [
                { "id": "CLOCKS", "value": "Clocks" },
                { "id": "CURTAIN_RODS", "value": "Curtain Rods" },
                { "id": "FLOWER_VASES", "value": "Flower Vases" },
                { "id": "HOME_DECOR_ACCENTS", "value": "Home Decor Accents" },
                { "id": "PEN_STANDS", "value": "Pen Stands" },
                { "id": "RELIGIOUS_IDOLS", "value": "Religious Idols" },
                { "id": "SCULPTURED_IDOLS", "value": "Sculptured Idols" },
                {
                  "id": "STORAGE_AND_ORGANISATION",
                  "value": "Storage & Organisation"
                },
                { "id": "WALL_BRACKETS", "value": "Wall Brackets" }
              ]
            },
            {
              "id": "KITCHEN_AND_DINING",
              "value": "Kitchen & Dining",
              "subCategories": [
                { "id": "COMBS", "value": "Combs" },
                { "id": "TABLE_PLACEMATS", "value": "Table Placemats" },
                {
                  "id": "TABLEWARE_AND_CUTLERY",
                  "value": "Tableware & Cutlery"
                },
                { "id": "TRAYS", "value": "Trays" }
              ]
            },
            {
              "id": "KONDAPALLI",
              "value": "Kondapalli",
              "subCategories": [
                { "id": "HOME_DECOR_ACCENTS", "value": "Home Decor Accents" },
                { "id": "RELIGIOUS_IDOLS", "value": "Religious Idols" }
              ]
            },
            {
              "id": "LACQUERWARE",
              "value": "Lacquerware",
              "subCategories": [
                { "id": "HOME_DECOR_ACCENTS", "value": "Home Decor Accents" },
                { "id": "JARS_AND_CONTAINERS", "value": "Jars & Containers" },
                { "id": "PEN_STANDS", "value": "Pen Stands" },
                { "id": "RELIGIOUS_IDOLS", "value": "Religious Idols" },
                { "id": "STATIONERY", "value": "Stationery" },
                { "id": "TEETHERS", "value": "Teethers" },
                { "id": "TOYS", "value": "Toys" }
              ]
            },
            {
              "id": "LEARNING_AND_EDUCATION",
              "value": "Learning & Education",
              "subCategories": [{ "id": "TOYS", "value": "Toys" }]
            },
            {
              "id": "OFFICE_PRODUCTS",
              "value": "Office Products",
              "subCategories": [
                { "id": "CARD_HOLDERS", "value": "Card Holders" },
                { "id": "PEN_STANDS", "value": "Pen Stands" }
              ]
            },
            {
              "id": "SCULPTURES",
              "value": "Sculptures",
              "subCategories": [
                { "id": "HOME_DECOR_ACCENTS", "value": "Home Decor Accents" },
                { "id": "RELIGIOUS_IDOLS", "value": "Religious Idols" }
              ]
            },
            {
              "id": "STATIONERY_AND_OFFICE_PRODUCTS",
              "value": "Stationery & Office Products",
              "subCategories": [
                {
                  "id": "DESK_ACCESSORIES_AND_STORAGE_PRODUCTS",
                  "value": "Desk Accessories & Storage Products"
                }
              ]
            },
            {
              "id": "UDAYAGIRI_CUTLERY_AND_CRAFTS",
              "value": "Udayagiri Cutlery & Crafts",
              "subCategories": [
                { "id": "COMBS", "value": "Combs" },
                { "id": "HOME_DECOR_ACCENTS", "value": "Home Decor Accents" },
                { "id": "JARS_AND_CONTAINERS", "value": "Jars & Containers" },
                { "id": "LAMPS_AND_LANTERNS", "value": "Lamps & Lanterns" },
                { "id": "PEN_STAND", "value": "Pen stand" },
                { "id": "PHOTO_FRAMES", "value": "Photo Frames" },
                { "id": "TABLE_PLACEMATS", "value": "Table Placemats" },
                { "id": "TOYS", "value": "Toys" },
                { "id": "TRAYS", "value": "Trays" }
              ]
            },
            {
              "id": "UDAYAGIRI_WOODEN_CUTLERY_AND_CRAFTS",
              "value": "Udayagiri Wooden Cutlery & Crafts",
              "subCategories": [
                { "id": "COMBS", "value": "Combs" },
                { "id": "FLOWER_VASES", "value": "Flower Vases" },
                { "id": "HOME_DECOR_ACCENTS", "value": "Home Decor Accents" },
                { "id": "PEN_STANDS", "value": "Pen Stands" },
                { "id": "PENS", "value": "Pens" },
                {
                  "id": "TABLEWARE_AND_CUTLERY",
                  "value": "Tableware & Cutlery"
                },
                { "id": "TOYS", "value": "Toys" },
                { "id": "TRAYS", "value": "Trays" }
              ]
            }
          ]
        },
        {
          "id": "WOOLLEN",
          "value": "Woollen",
          "subCategories": [
            {
              "id": "HOME_DECOR_ACCENTS",
              "value": "Home Decor accents",
              "subCategories": [
                { "id": "THORAN_DOOR_DECOR", "value": "Thoran (Door Decor)" }
              ]
            }
          ]
        }
      ]
    },
    {
      "id": "HEALTH_AND_PERSONAL_CARE",
      "value": "HEALTH & PERSONAL CARE",
      "subCategories": [
        {
          "id": "CHILDRENS_ACCESSORIES",
          "value": "Childrens Accessories",
          "subCategories": [
            {
              "id": "HAIR_ACCESSORIES",
              "value": "Hair Accessories",
              "subCategories": [{ "id": "HAIRBANDS", "value": "Hairbands" }]
            }
          ]
        },
        {
          "id": "HERBAL_PRODUCTS",
          "value": "Herbal Products",
          "subCategories": [
            {
              "id": "ALTERNATIVE_MEDICINE",
              "value": "Alternative Medicine",
              "subCategories": [
                { "id": "ACHES_AND_PAINS", "value": "Aches & Pains" },
                { "id": "ACIDITY", "value": "Acidity" },
                { "id": "AMLA_POWDER", "value": "Amla Powder" },
                { "id": "AMRUTHAVALLI_POWDER", "value": "Amruthavalli Powder" },
                { "id": "ASHWAGANDHA_CHURNA", "value": "Ashwagandha Churna" },
                { "id": "ATHIMADHURAM_CHURNA", "value": "Athimadhuram Churna" },
                { "id": "CONSTIPATION", "value": "Constipation" },
                { "id": "COUGH", "value": "Cough" },
                { "id": "DIABETES", "value": "Diabetes" },
                { "id": "DIABETIC_CHURNA", "value": "Diabetic Churna" },
                {
                  "id": "HARITAKI_KARAKAYA_POWDER",
                  "value": "Haritaki (Karakaya) Powder"
                },
                { "id": "KIDNEY_STONES", "value": "Kidney Stones" },
                { "id": "PILES", "value": "Piles" },
                { "id": "PIPPALI_CHURNA", "value": "Pippali Churna" },
                { "id": "SUNAMUKHI_CHURNA", "value": "Sunamukhi Churna" },
                {
                  "id": "TAMARIND_SEEDS_POWDER",
                  "value": "Tamarind seeds Powder"
                },
                { "id": "TRIPHALA_CHURNA", "value": "Triphala Churna" },
                { "id": "TULSI_CHURNA", "value": "Tulsi Churna" },
                { "id": "WEIGHT_LOSS", "value": "Weight loss" }
              ]
            },
            {
              "id": "BODY_SKIN_AND_HAIR_CARE",
              "value": "Body, Skin & Hair Care",
              "subCategories": [
                { "id": "AMLA_POWDER", "value": "Amla Powder" },
                { "id": "BATH_POWDER", "value": "Bath Powder" },
                {
                  "id": "BHRINGRAJ_LEAVES_POWDER",
                  "value": "Bhringraj Leaves Powder"
                },
                { "id": "BODY_SCRUBBERS", "value": "Body Scrubbers" },
                { "id": "FACE_PACKS", "value": "Face Packs" },
                { "id": "HAIR_MASKS", "value": "Hair Masks" },
                { "id": "HAIR_OIL", "value": "Hair Oil" },
                { "id": "HENNA_POWDER", "value": "Henna Powder" },
                {
                  "id": "HIBISCUS_FLOWER_POWDER",
                  "value": "Hibiscus Flower Powder"
                },
                {
                  "id": "HIBISCUS_LEAVES_POWDER",
                  "value": "Hibiscus Leaves Powder"
                },
                {
                  "id": "KASTURI_TURMERIC_POWDER",
                  "value": "Kasturi Turmeric Powder"
                },
                {
                  "id": "MULTANI_MITTI_FULLERS_EARTH",
                  "value": "Multani Mitti (Fullers Earth)"
                },
                { "id": "NEEM_LEAVES_POWDER", "value": "Neem Leaves Powder" },
                { "id": "ORANGE_PEELS_POWDER", "value": "Orange Peels Powder" },
                { "id": "ROSE_PETALS_POWDER", "value": "Rose Petals Powder" },
                { "id": "SHAMPOO_POWDER", "value": "Shampoo Powder" },
                { "id": "SHIKAKAI_POWDER", "value": "Shikakai Powder" },
                { "id": "SOAP", "value": "Soap" },
                { "id": "SOAPNUT_POWDER", "value": "Soapnut Powder" },
                { "id": "TURMERIC_POWDER", "value": "Turmeric Powder" }
              ]
            },
            {
              "id": "HOME_FRAGRANCE",
              "value": "Home Fragrance",
              "subCategories": [
                { "id": "INCENSE_STICKS", "value": "Incense sticks" }
              ]
            }
          ]
        },
        {
          "id": "HOME_AND_KITCHEN",
          "value": "Home & Kitchen",
          "subCategories": [
            {
              "id": "PUJA_ARTICLES",
              "value": "Puja Articles",
              "subCategories": [{ "id": "KUMKUM", "value": "Kumkum" }]
            }
          ]
        },
        {
          "id": "PAIN_RELIEF_PRODUCTS",
          "value": "Pain Relief Products",
          "subCategories": [{ "id": "MASSAGE_TOOLS", "value": "Massage Tools" }]
        },
        {
          "id": "PERFUMES_AND_FRAGRANCES",
          "value": "Perfumes & Fragrances",
          "subCategories": [
            {
              "id": "FRAGRANCES",
              "value": "Fragrances",
              "subCategories": [
                { "id": "ROLL_ON_FRAGRANCE", "value": "Roll On Fragrance" }
              ]
            }
          ]
        },
        {
          "id": "TERRACOTTA",
          "value": "Terracotta",
          "subCategories": [
            {
              "id": "BODY_SKIN_AND_HAIR_CARE",
              "value": "Body, Skin & Hair Care",
              "subCategories": [
                { "id": "FOOT_SCRUBBERS", "value": "Foot Scrubbers" }
              ]
            }
          ]
        },
        {
          "id": "WOMENS_HYGIENE",
          "value": "Women's Hygiene",
          "subCategories": [
            { "id": "SANITARY_NAPKINS", "value": "Sanitary Napkins" }
          ]
        }
      ]
    },
    {
      "id": "HOME_AND_KITCHEN",
      "value": "HOME & KITCHEN",
      "subCategories": [
        {
          "id": "HERBAL_PRODUCTS",
          "value": "Herbal Products",
          "subCategories": [
            {
              "id": "HOME_FRAGRANCE",
              "value": "Home Fragrance",
              "subCategories": [
                { "id": "INCENSE_STICKS", "value": "Incense Sticks" }
              ]
            }
          ]
        },
        {
          "id": "HOME_AND_DECOR",
          "value": "Home & Decor",
          "subCategories": [
            {
              "id": "HOME_DECOR_ACCENTS",
              "value": "Home Decor Accents",
              "subCategories": [
                { "id": "ARTIFICIAL_FLOWERS", "value": "Artificial Flowers" },
                { "id": "GARLANDS", "value": "Garlands" },
                { "id": "LAMP_SHADES", "value": "Lamp shades" }
              ]
            },
            {
              "id": "HOME_FRAGRANCE",
              "value": "Home Fragrance",
              "subCategories": [
                { "id": "INCENSE_STICKS", "value": "Incense Sticks" }
              ]
            }
          ]
        },
        {
          "id": "KITCHEN_AND_DINING",
          "value": "Kitchen & Dining",
          "subCategories": [
            {
              "id": "COOKWARE",
              "value": "Cookware",
              "subCategories": [{ "id": "TAWA", "value": "Tawa" }]
            },
            {
              "id": "DRINKWARE",
              "value": "Drinkware",
              "subCategories": [
                { "id": "COFFEE_MUGS", "value": "Coffee Mugs" },
                { "id": "COPPER_TUMBLERS", "value": "Copper Tumblers" },
                { "id": "EARTHEN_TUMBLERS", "value": "Earthen Tumblers" },
                { "id": "TEA_CUPS", "value": "Tea Cups" },
                { "id": "WATER_BOTTLES", "value": "Water Bottles" }
              ]
            },
            {
              "id": "JUGS_AND_PITCHERS",
              "value": "Jugs & Pitchers",
              "subCategories": [
                { "id": "COPPER_JUGS", "value": "Copper Jugs" },
                { "id": "TERRACOTTA_JUGS", "value": "Terracotta Jugs" }
              ]
            },
            {
              "id": "KITCHEN_TOOLS",
              "value": "Kitchen Tools",
              "subCategories": [
                { "id": "CHOPPING_BOARD", "value": "Chopping Board" },
                { "id": "MORTAR_AND_PESTLE", "value": "Mortar & Pestle" },
                { "id": "MOULDS", "value": "Moulds" },
                { "id": "ROLLING_PINS", "value": "Rolling Pins" },
                { "id": "SPATULAS", "value": "Spatulas" },
                { "id": "WOODEN_PRESS", "value": "Wooden Press" }
              ]
            },
            {
              "id": "TERRACOTTA",
              "value": "Terracotta",
              "subCategories": [{ "id": "COOKWARE", "value": "Cookware" }]
            }
          ]
        },
        {
          "id": "KITCHEN_AND_DINING_TERRACOTTA",
          "value": "Kitchen & Dining, Terracotta",
          "subCategories": [
            {
              "id": "DRINKWARE",
              "value": "Drinkware",
              "subCategories": [
                { "id": "WATER_BOTTLES", "value": "Water Bottles" }
              ]
            }
          ]
        }
      ]
    },
    {
      "id": "JEWELLERY",
      "value": "JEWELLERY",
      "subCategories": [
        {
          "id": "WOMENS_JEWELLERY",
          "value": "Womens Jewellery",
          "subCategories": [
            {
              "id": "BANGLES_AND_BRACELETS",
              "value": "Bangles & Bracelets",
              "subCategories": [
                { "id": "BEAD_BRACELETS", "value": "Bead Bracelets" },
                { "id": "OXIDISED_BRACELETS", "value": "Oxidised Bracelets" }
              ]
            },
            {
              "id": "CHAINS_AND_NECKLACES",
              "value": "Chains & Necklaces",
              "subCategories": [
                { "id": "CHAINS", "value": "Chains" },
                { "id": "NECKLACES", "value": "Necklaces" }
              ]
            },
            {
              "id": "EARRINGS",
              "value": "Earrings",
              "subCategories": [
                { "id": "BEAD_EARRINGS", "value": "Bead Earrings" },
                {
                  "id": "CUBIC_ZIRCONIA_CZ_EARRINGS",
                  "value": "Cubic Zirconia (CZ) Earrings"
                },
                { "id": "EARRINGS_IN_WOOD", "value": "Earrings in Wood" },
                { "id": "OXIDISED_EARRINGS", "value": "Oxidised Earrings" },
                { "id": "PEARL_EARRINGS", "value": "Pearl Earrings" }
              ]
            }
          ]
        }
      ]
    },
    {
      "id": "TEXTILES",
      "value": "TEXTILES",
      "subCategories": [
        {
          "id": "CHILDRENS_CLOTHING",
          "value": "Children's Clothing",
          "subCategories": [
            {
              "id": "GIRLS_CLOTHING",
              "value": "Girls Clothing",
              "subCategories": [
                { "id": "CARDIGANS", "value": "Cardigans" },
                { "id": "FROCKS", "value": "Frocks" },
                { "id": "LANGA_AND_BLOUSE", "value": "Langa & Blouse" },
                { "id": "OVERCOATS", "value": "Overcoats" },
                {
                  "id": "SHIRTS_TOPS_AND_TUNICS",
                  "value": "Shirts, Tops & Tunics"
                },
                { "id": "SHRUGS", "value": "Shrugs" }
              ]
            }
          ]
        },
        {
          "id": "CLOTHING_AND_ACCESSORIES",
          "value": "Clothing & Accessories",
          "subCategories": [
            {
              "id": "MENS_ACCESSORIES",
              "value": "Men's Accessories",
              "subCategories": [
                { "id": "HANDKERCHIEFS", "value": "Handkerchiefs" }
              ]
            },
            {
              "id": "WOMENS_ACCESSORIES",
              "value": "Women's Accessories",
              "subCategories": [
                { "id": "HANDKERCHIEFS", "value": "Handkerchiefs" }
              ]
            }
          ]
        },
        {
          "id": "GIRLS_CLOTHING",
          "value": "Girls Clothing",
          "subCategories": [
            {
              "id": "GIRLS_CLOTHING",
              "value": "Girls Clothing",
              "subCategories": [
                { "id": "SKIRTS_AND_TOPS", "value": "Skirts & Tops" }
              ]
            }
          ]
        },
        {
          "id": "HOME_AND_KITCHEN",
          "value": "Home & Kitchen",
          "subCategories": [
            {
              "id": "BATH_LINEN",
              "value": "Bath Linen",
              "subCategories": [{ "id": "TOWELS", "value": "Towels" }]
            },
            {
              "id": "BED_LINEN",
              "value": "Bed Linen",
              "subCategories": [
                { "id": "BED_SPREADS", "value": "Bed Spreads" },
                { "id": "BEDSHEETS", "value": "Bedsheets" },
                { "id": "BLANKETS", "value": "Blankets" }
              ]
            },
            {
              "id": "HOME_FURNISHING",
              "value": "Home Furnishing",
              "subCategories": [
                { "id": "APPLIANCE_COVERS", "value": "Appliance covers" },
                { "id": "CARPETS", "value": "Carpets" },
                { "id": "CURTAINS", "value": "Curtains" },
                { "id": "CUSHION_COVERS", "value": "Cushion Covers" },
                { "id": "FLOOR_RUNNERS", "value": "Floor Runners" }
              ]
            },
            {
              "id": "TABLE_LINEN",
              "value": "Table Linen",
              "subCategories": [{ "id": "TABLE_CLOTH", "value": "Table Cloth" }]
            }
          ]
        },
        {
          "id": "INFANTS_CLOTHING",
          "value": "Infants Clothing",
          "subCategories": [
            {
              "id": "GIRLS_CLOTHING",
              "value": "Girls Clothing",
              "subCategories": [
                { "id": "FROCKS", "value": "Frocks" },
                { "id": "SKIRTS_AND_TOPS", "value": "Skirts & Tops" }
              ]
            },
            {
              "id": "SEASONAL_WEAR",
              "value": "Seasonal Wear",
              "subCategories": [
                { "id": "FROCKS", "value": "Frocks" },
                { "id": "SKIRTS", "value": "Skirts" }
              ]
            }
          ]
        },
        {
          "id": "MENS_CLOTHING",
          "value": "Men's Clothing",
          "subCategories": [
            {
              "id": "ETHNIC_WEAR",
              "value": "Ethnic Wear",
              "subCategories": [
                {
                  "id": "DHOTIS_MUNDUS_AND_LUNGIS",
                  "value": "Dhotis, Mundus & Lungis"
                }
              ]
            },
            {
              "id": "FABRIC",
              "value": "Fabric",
              "subCategories": [
                { "id": "KHADI_SHIRT_FABRIC", "value": "Khadi Shirt Fabric" },
                {
                  "id": "KHADI_TROUSER_FABRIC",
                  "value": "Khadi Trouser Fabric"
                }
              ]
            },
            {
              "id": "LOUNGEWEAR_AND_NIGHTWEAR",
              "value": "Loungewear & Nightwear",
              "subCategories": [
                { "id": "NIGHTWEAR", "value": "Nightwear" },
                { "id": "SHORTS", "value": "Shorts" }
              ]
            },
            {
              "id": "SHIRTS",
              "value": "Shirts",
              "subCategories": [
                { "id": "COTTON", "value": "Cotton" },
                { "id": "KALAMKARI", "value": "Kalamkari" },
                { "id": "KHADI", "value": "Khadi" }
              ]
            }
          ]
        },
        {
          "id": "SPORTS_FITNESS_AND_OUTDOORS",
          "value": "Sports, Fitness & Outdoors",
          "subCategories": [
            {
              "id": "EXERCISE_AND_FITNESS",
              "value": "Exercise & fitness",
              "subCategories": [{ "id": "YOGA_MATS", "value": "Yoga Mats" }]
            }
          ]
        },
        {
          "id": "WOMENS_AND_GIRLS_CLOTHING",
          "value": "Women's & Girls Clothing",
          "subCategories": [
            {
              "id": "WESTERN_WEAR",
              "value": "Western Wear",
              "subCategories": [
                { "id": "JACKETS", "value": "Jackets" },
                { "id": "OVERCOATS", "value": "Overcoats" },
                { "id": "PONCHOS", "value": "Ponchos" },
                {
                  "id": "SHIRTS_TOPS_AND_TUNICS",
                  "value": "Shirts, Tops & Tunics"
                },
                { "id": "SKIRTS", "value": "Skirts" },
                { "id": "SKIRTS_AND_TOPS", "value": "Skirts & Tops" }
              ]
            }
          ]
        },
        {
          "id": "WOMENS_CLOTHING",
          "value": "Women's Clothing",
          "subCategories": [
            {
              "id": "BATIK",
              "value": "Batik",
              "subCategories": [
                { "id": "COTTON_SAREES", "value": "Cotton Sarees" },
                { "id": "GEORGETTE_SAREES", "value": "Georgette Sarees" },
                { "id": "SILK_SAREES", "value": "Silk Sarees" }
              ]
            },
            {
              "id": "BHAGALPURI",
              "value": "Bhagalpuri",
              "subCategories": [
                { "id": "COTTON_SAREES", "value": "Cotton Sarees" }
              ]
            },
            {
              "id": "DHARMAVARAM",
              "value": "Dharmavaram",
              "subCategories": [{ "id": "SILK_SAREES", "value": "Silk Sarees" }]
            },
            {
              "id": "ETHNIC_WEAR",
              "value": "Ethnic Wear",
              "subCategories": [
                { "id": "COTTON_SAREE", "value": "Cotton Saree" },
                { "id": "COTTON_SAREES", "value": "Cotton Sarees" },
                { "id": "COTTON_SILK_SAREES", "value": "Cotton Silk Sarees" },
                { "id": "GEORGETTE_SAREES", "value": "Georgette Sarees" },
                {
                  "id": "KALAMKARI_COTTON_DUPATTA",
                  "value": "Kalamkari Cotton Dupatta"
                },
                {
                  "id": "KALAMKARI_SILK_DUPATTA",
                  "value": "Kalamkari Silk Dupatta"
                },
                { "id": "LINEN_SAREES", "value": "Linen Sarees" },
                { "id": "SALWAR_KAMEEZ", "value": "Salwar Kameez" },
                {
                  "id": "SALWAR_KAMEEZ_FABRIC",
                  "value": "Salwar kameez Fabric"
                },
                { "id": "SAREE_BLOUSE_FABRIC", "value": "Saree Blouse Fabric" },
                { "id": "SAREE_PATCHES", "value": "Saree Patches" },
                { "id": "SAREE_PETTICOATS", "value": "Saree Petticoats" },
                { "id": "SILK_SAREES", "value": "Silk Sarees" }
              ]
            },
            {
              "id": "GADWAL",
              "value": "Gadwal",
              "subCategories": [
                { "id": "COTTON_SAREES", "value": "Cotton Sarees" },
                { "id": "COTTON_SILK_SAREES", "value": "Cotton Silk Sarees" },
                { "id": "SILK_SAREES", "value": "Silk Sarees" }
              ]
            },
            {
              "id": "IKAT",
              "value": "Ikat",
              "subCategories": [
                { "id": "SAREE_BLOUSE_FABRIC", "value": "Saree Blouse Fabric" }
              ]
            },
            {
              "id": "ILKAL",
              "value": "Ilkal",
              "subCategories": [
                { "id": "COTTON_SAREES", "value": "Cotton Sarees" }
              ]
            },
            {
              "id": "KALAMKARI",
              "value": "Kalamkari",
              "subCategories": [
                { "id": "COTTON_SAREES", "value": "Cotton Sarees" },
                { "id": "COTTON_SILK_SAREES", "value": "Cotton Silk Sarees" },
                { "id": "FABRIC", "value": "Fabric" },
                { "id": "JACKETS", "value": "Jackets" },
                {
                  "id": "SALWAR_KAMEEZ_FABRIC",
                  "value": "Salwar kameez Fabric"
                },
                { "id": "SAREE_BLOUSE_FABRIC", "value": "Saree Blouse Fabric" },
                { "id": "SILK_DUPATTAS", "value": "Silk Dupattas" },
                { "id": "SILK_SAREES", "value": "Silk Sarees" }
              ]
            },
            {
              "id": "KANCHIPURAM",
              "value": "Kanchipuram",
              "subCategories": [
                { "id": "COTTON_SAREES", "value": "Cotton Sarees" },
                { "id": "SILK_SAREES", "value": "Silk Sarees" }
              ]
            },
            {
              "id": "KOTA",
              "value": "Kota",
              "subCategories": [
                { "id": "COTTON_SAREES", "value": "Cotton Sarees" }
              ]
            },
            {
              "id": "KUPPADAM",
              "value": "Kuppadam",
              "subCategories": [
                { "id": "COTTON_SAREES", "value": "Cotton Sarees" }
              ]
            },
            {
              "id": "MANGALAGIRI",
              "value": "Mangalagiri",
              "subCategories": [
                { "id": "COTTON_SAREES", "value": "Cotton Sarees" },
                { "id": "COTTON_SILK_SAREES", "value": "Cotton Silk Sarees" },
                { "id": "SALWAR_KAMEEZ", "value": "Salwar kameez" },
                {
                  "id": "SALWAR_KAMEEZ_FABRIC",
                  "value": "Salwar Kameez Fabric"
                }
              ]
            },
            {
              "id": "MANGALGIRI",
              "value": "Mangalgiri",
              "subCategories": [
                { "id": "COTTON_SAREE", "value": "Cotton Saree" }
              ]
            },
            {
              "id": "NIGHTWEAR",
              "value": "Nightwear",
              "subCategories": [{ "id": "NIGHTY", "value": "Nighty" }]
            },
            {
              "id": "POCHAMPALLI",
              "value": "Pochampalli",
              "subCategories": [
                { "id": "COTTON_SAREE", "value": "Cotton Saree" }
              ]
            },
            {
              "id": "POCHAMPALLY",
              "value": "Pochampally",
              "subCategories": [
                { "id": "COTTON_SAREES", "value": "Cotton Sarees" },
                { "id": "SILK_SAREES", "value": "Silk Sarees" }
              ]
            },
            {
              "id": "SEASONAL_WEAR",
              "value": "Seasonal Wear",
              "subCategories": [{ "id": "OVERCOATS", "value": "Overcoats" }]
            },
            {
              "id": "SHIRTS_TOPS_AND_TUNICS",
              "value": "Shirts, Tops & Tunics",
              "subCategories": [
                { "id": "SALWAR_KAMEEZ", "value": "Salwar Kameez" }
              ]
            },
            {
              "id": "TIE_AND_DYE",
              "value": "Tie & Dye",
              "subCategories": [
                { "id": "COTTON_SAREES", "value": "Cotton Sarees" }
              ]
            },
            {
              "id": "UPPADA",
              "value": "Uppada",
              "subCategories": [
                { "id": "COTTON_SAREES", "value": "Cotton Sarees" },
                { "id": "COTTON_SILK_SAREES", "value": "Cotton Silk Sarees" },
                { "id": "SILK_SAREES", "value": "Silk Sarees" },
                { "id": "TISSUE_SAREE", "value": "Tissue Saree" }
              ]
            },
            {
              "id": "VENKATAGIRI",
              "value": "Venkatagiri",
              "subCategories": [
                { "id": "COTTON_SAREES", "value": "Cotton Sarees" },
                { "id": "COTTON_SILK_SAREES", "value": "Cotton Silk Sarees" },
                { "id": "SILK_SAREES", "value": "Silk Sarees" }
              ]
            },
            {
              "id": "WESTERN_WEAR",
              "value": "Western Wear",
              "subCategories": [
                { "id": "PONCHOS", "value": "Ponchos" },
                {
                  "id": "SHIRTS_TOPS_AND_TUNICS",
                  "value": "Shirts, Tops & Tunics"
                },
                { "id": "SHRUGS", "value": "Shrugs" }
              ]
            }
          ]
        }
      ]
    }
  ]
}
